Newsom analysis
…
Gavin Newsom is Californias first social media governor. He has the distinction of being the most followed U.S. governor on Twitter  by a lot.

So we decided to learn more about Newsoms tweeting habits.

We used a Twitter API to collect tweets from all U.S. governors accounts, official and personal, between March 1 and December 31, 2019. This is as far back as we could go using the API and still analyze a complete set of governors tweets. We were able to collect older tweets going back to January 1, 2017 for Gavin Newsoms personal account.

We studied Governor Newsoms tweeting habitshow he tweets between his two accounts and compared to other U.S. Governors. Heres what we found:

Newsoms tweeting habits

Gavin Newsom has two accounts: an official account, @CAgovernor, and a personal account, @GavinNewsom.

Which @GavinNewsom tweets received the most likes in the past 3 years?

## # A tibble: 3,917 x 4
##    created_at          screen_name text                           favorite_count
##    <dttm>              <chr>       <chr>                                   <dbl>
##  1 2017-06-02 22:33:21 GavinNewsom This is from an Australian ne         163825
##  2 2019-08-04 00:11:22 GavinNewsom If youre so horrified... d         118724
##  3 2017-09-23 17:05:42 GavinNewsom "RECAP:\n\nNazis: very fine p          82361
##  4 2018-03-07 17:01:52 GavinNewsom Jeff Sessions just called me           72862
##  5 2019-07-25 23:02:40 GavinNewsom "TODAY:\nTrump chooses to res          70975
##  6 2017-11-20 00:06:33 GavinNewsom Cant believe I have to type           59417
##  7 2017-11-05 21:40:28 GavinNewsom They were in their church pra          56584
##  8 2019-08-08 20:56:39 GavinNewsom "\"Please don't leave the chi          50049
##  9 2019-08-03 21:52:05 GavinNewsom "Again. On Sunday, it was Gil          48230
## 10 2018-05-14 17:54:35 GavinNewsom "Hi @NRA -\n\nReceived your q          46114
## #  with 3,907 more rows
…
He has far more audience engagement from Twitter likes than Facebook reactions.

Which @GavinNewsom tweets were retweeted the most?

## # A tibble: 3,917 x 4
##    created_at          screen_name text                            retweet_count
##    <dttm>              <chr>       <chr>                                   <dbl>
##  1 2018-02-22 22:50:03 GavinNewsom Young people have helped lead         426851
##  2 2017-07-20 00:50:57 GavinNewsom John McCain is an American her        388117
##  3 2017-09-05 18:57:53 GavinNewsom To target hopeful young strive        362238
##  4 2017-06-01 02:08:02 GavinNewsom People in covfefe houses shoul        288817
##  5 2017-07-10 13:24:32 GavinNewsom Good morning Mr. President. It        174329
##  6 2017-11-01 19:06:12 GavinNewsom Starting today, you can sign u        129992
##  7 2017-01-20 15:44:41 GavinNewsom "Yes we can.\nYes we did.\nTha        129639
##  8 2017-09-13 19:00:32 GavinNewsom Our silence on this is embarra        126258
##  9 2018-06-18 20:27:20 GavinNewsom Sometimes truth transcends par        126159
## 10 2017-09-24 21:35:07 GavinNewsom "Patriotism isn't about making        125673
## #  with 3,907 more rows
…
Gavin Newsom also has more audience engagement from Twitter retweets than from Facebook shares.

reply count data not available without Premium and Enterprise tier

Which Twitter users does @GavinNewsom reply to the most?

## # A tibble: 178 x 2
## # Groups:   reply_to_screen_name [178]
##    reply_to_screen_name     n
##    <chr>                <int>
##  1 <NA>                  3530
##  2 GavinNewsom            182
##  3 yldja                    6
##  4 Arborsierra77            3
##  5 ColeDavid                3
##  6 DarrinFisher2            3
##  7 JenSiebelNewsom          3
##  8 _SilenceDo_good          2
##  9 bobbychandlerjr          2
## 10 Brandontheblade          2
## #  with 168 more rows

@yldjas Twitter bio reads, [The OC, state of Commiefornia] (https://twitter.com/yldja)

Which Twitter users does @GavinNewsom mention the most?

## # A tibble: 690 x 2
## # Groups:   mentions_screen_name [690]
##    mentions_screen_name       n
##    <chr>                  <int>
##  1 <NA>                    2573
##  2 GOP                      106
##  3 JenSiebelNewsom          103
##  4 realDonaldTrump           58
##  5 NRA                       51
##  6 POTUS                     33
##  7 KamalaHarris              22
##  8 CAgovernor GavinNewsom    21
##  9 SpeakerRyan               20
## 10 CAgovernor                16
## #  with 680 more rows

*[@JenSiebelNewsom is Gavin Newsom's wife] (https://twitter.com/JenSiebelNewsom)

What are @GavinNewsoms favorite hashtags? (He doesnt use many)

## # A tibble: 300 x 3
## # Groups:   screen_name, hashtags [300]
##    screen_name hashtags             n
##    <chr>       <chr>            <int>
##  1 GavinNewsom <NA>              3464
##  2 GavinNewsom BlueCA               9
##  3 GavinNewsom MarchingForward      9
##  4 GavinNewsom CADEM2017            8
##  5 GavinNewsom CaliforniaForAll     8
##  6 GavinNewsom CADEM19              7
##  7 GavinNewsom WomensMarch          7
##  8 GavinNewsom IStandWithPP         6
##  9 GavinNewsom OrovilleDam          6
## 10 GavinNewsom Trumpcare            6
## #  with 290 more rows

By comparison, theses are Gavin Newsoms official accounts favorite hashtags:

## # A tibble: 149 x 3
## # Groups:   screen_name, hashtags [149]
##    screen_name hashtags                         n
##    <chr>       <chr>                        <int>
##  1 CAgovernor  <NA>                          1535
##  2 CAgovernor  CaliforniaForAll               221
##  3 CAgovernor  CalEITC                         10
##  4 CAgovernor  CalEITC CaliforniaForAll        10
##  5 CAgovernor  DiaTogether CaliforniaForAll     8
##  6 CAgovernor  WildfirePreparednessWeek         6
##  7 CAgovernor  2020Census CaliforniaForAll      5
##  8 CAgovernor  2020census CaliforniaForAll      4
##  9 CAgovernor  CaliforniaForAll CAbudget        4
## 10 CAgovernor  DiaDeLosNinos                    4
## #  with 139 more rows
…
