pandemic twitter
…
## # A tibble: 50 x 2
##    screen_name     total
##    <chr>           <dbl>
##  1 LouisianaGov      772
##  2 GovMikeDeWine     536
##  3 dougducey         393
##  4 GovMurphy         363
##  5 GovRicketts       319
##  6 GovNedLamont      301
##  7 CAgovernor        245
##  8 GovParsonMO       207
##  9 NYGovCuomo        192
## 10 GovernorTomWolf   188
## #  with 40 more rows
…
